<svg viewBox="0 0 40 40" fill="currentColor" xmlns="http://www.w3.org/2000/svg">
<path fill-rule="evenodd" clip-rule="evenodd" d="M24.0128 2.22458C22.9011 0.995977 21.004 0.90115 19.7754 2.01277L6.65765 13.8816L10.6832 18.3307L23.801 6.46193C25.0296 5.3503 25.1244 3.45318 24.0128 2.22458ZM9.37903 19.5107L5.35348 15.0616L3.46186 16.7731L2.50853 21.6814L7.48741 21.2223L9.37903 19.5107Z" />
</svg>
